Code/cpu_wavedata.vcd
$date
	Sun Jun 21 21:32:15 2020
$end
$version
	Icarus Verilog
$end
$timescale
	100ps
$end
$scope module cpu_tb $end
$var wire 1 ! busywait_cpu $end
$var wire 32 " newinstruction [31:0] $end
$var wire 32 # mem_writedata [31:0] $end
$var wire 1 $ mem_write $end
$var wire 32 % mem_readdata [31:0] $end
$var wire 1 & mem_read $end
$var wire 1 ' mem_busywait $end
$var wire 6 ( mem_address [5:0] $end
$var wire 1 ) inst_read $end
$var wire 32 * i_readdata [31:0] $end
$var wire 128 + i_memreaddata [127:0] $end
$var wire 1 , i_memread $end
$var wire 1 - i_membusywait $end
$var wire 6 . i_memaddress [5:0] $end
$var wire 1 / i_busywait $end
$var wire 8 0 WRITEDATA [7:0] $end
$var wire 1 1 WRITE $end
$var wire 8 2 READDATA [7:0] $end
$var wire 1 3 READ $end
$var wire 10 4 PC_address [9:0] $end
$var wire 32 5 PC [31:0] $end
$var wire 1 6 BUSYWAIT $end
$var wire 8 7 ADDRESS [7:0] $end
$var reg 1 8 CLK $end
$var reg 32 9 INSTRUCTION [31:0] $end
$var reg 1 : RESET $end
$scope module mycache $end
$var wire 1 8 clock $end
$var wire 1 ; dirty $end
$var wire 1 < hit $end
$var wire 3 = in2 [2:0] $end
$var wire 1 : reset $end
$var wire 1 > v $end
$var wire 8 ? writedata [7:0] $end
$var wire 1 1 write $end
$var wire 1 @ tagcom $end
$var wire 1 3 read $end
$var wire 32 A mem_readdata [31:0] $end
$var wire 1 ' mem_busywait $end
$var wire 3 B in1 [2:0] $end
$var wire 1 6 busywait $end
$var wire 8 C address [7:0] $end
$var reg 1 6 busywait_reg $end
$var reg 32 D datablock [31:0] $end
$var reg 3 E index [2:0] $end
$var reg 6 F mem_address [5:0] $end
$var reg 1 & mem_read $end
$var reg 1 $ mem_write $end
$var reg 32 G mem_writedata [31:0] $end
$var reg 3 H next_state [2:0] $end
$var reg 2 I offset [1:0] $end
$var reg 8 J readdata [7:0] $end
$var reg 3 K state [2:0] $end
$var reg 3 L tag [2:0] $end
$var integer 32 M i [31:0] $end
$upscope $end
$scope module mycpu $end
$var wire 8 N ADDRESS [7:0] $end
$var wire 1 ! BUSYWAIT $end
$var wire 1 8 CLK $end
$var wire 32 O INSTRUCTION [31:0] $end
$var wire 32 P PC2 [31:0] $end
$var wire 32 Q PC4 [31:0] $end
$var wire 8 R READDATA [7:0] $end
$var wire 1 : RESET $end
$var wire 8 S WRITEDATA [7:0] $end
$var wire 32 T offset_t2 [31:0] $end
$var wire 8 U out1 [7:0] $end
$var wire 8 V operand1 [7:0] $end
$var wire 32 W offset_t1 [31:0] $end
$var wire 8 X complement [7:0] $end
$var wire 1 Y ZERO $end
$var wire 8 Z REGOUT2 [7:0] $end
$var wire 8 [ REGOUT1 [7:0] $end
$var wire 32 \ PCout [31:0] $end
$var wire 32 ] PC3 [31:0] $end
$var wire 8 ^ IN [7:0] $end
$var wire 8 _ ALURESULT [7:0] $end
$var reg 3 ` ALUOP [2:0] $end
$var reg 1 a BNE $end
$var reg 1 b BRANCH $end
$var reg 8 c IMMEDIATE [7:0] $end
$var reg 1 d JUMP $end
$var reg 8 e OPCODE [7:0] $end
$var reg 32 f PC [31:0] $end
$var reg 1 3 READ $end
$var reg 3 g READREG1 [2:0] $end
$var reg 3 h READREG2 [2:0] $end
$var reg 1 1 WRITE $end
$var reg 1 i WRITEENABLE $end
$var reg 3 j WRITEREG [2:0] $end
$var reg 8 k incr [7:0] $end
$var reg 1 ) inst_read $end
$var reg 1 l mux1 $end
$var reg 1 m mux2 $end
$var reg 1 n mux3 $end
$scope module add $end
$var wire 32 o PC [31:0] $end
$var wire 32 p PC3 [31:0] $end
$var reg 32 q PC3_t [31:0] $end
$upscope $end
$scope module myadd $end
$var wire 1 a BNE $end
$var wire 1 b BRANCH $end
$var wire 1 d JUMP $end
$var wire 32 r incr [31:0] $end
$var wire 1 s out1 $end
$var wire 1 t out2 $end
$var wire 1 u out3 $end
$var wire 1 v out4 $end
$var wire 1 w out6 $end
$var wire 1 Y ZERO $end
$var wire 32 x PCout [31:0] $end
$var reg 32 y offset_t [31:0] $end
$var reg 32 z out10 [31:0] $end
$upscope $end
$scope module myalu $end
$var wire 8 { FORWARD [7:0] $end
$var wire 8 | IN1 [7:0] $end
$var wire 8 } IN2 [7:0] $end
$var wire 1 ~ OUT1 $end
$var wire 1 !" OUT2 $end
$var wire 1 "" OUT3 $end
$var wire 1 #" OUT4 $end
$var wire 1 $" OUT5 $end
$var wire 1 %" OUT6 $end
$var wire 1 &" OUT7 $end
$var wire 8 '" RESULT [7:0] $end
$var wire 3 (" SELECT [2:0] $end
$var wire 1 Y ZERO $end
$var wire 1 )" ZERO_value $end
$var wire 8 *" and_r [7:0] $end
$var wire 8 +" or_r [7:0] $end
$var wire 8 ," add_r [7:0] $end
$var wire 8 -" DATA2 [7:0] $end
$var wire 8 ." DATA1 [7:0] $end
$var reg 8 /" ALU_OUT [7:0] $end
$upscope $end
$scope module myoffset $end
$var wire 8 0" incr [7:0] $end
$var wire 32 1" offset_t1 [31:0] $end
$var reg 10 2" offset [9:0] $end
$var reg 32 3" offset_t [31:0] $end
$upscope $end
$scope module myreg $end
$var wire 1 8 CLK $end
$var wire 3 4" INADDRESS [2:0] $end
$var wire 8 5" OUT1 [7:0] $end
$var wire 3 6" OUT1ADDRESS [2:0] $end
$var wire 8 7" OUT2 [7:0] $end
$var wire 3 8" OUT2ADDRESS [2:0] $end
$var wire 1 : RESET $end
$var wire 1 i WRITE $end
$var wire 1 ! busywait $end
$var wire 8 9" IN [7:0] $end
$var integer 32 :" i [31:0] $end
$upscope $end
$scope module reg_mux1 $end
$var wire 8 ;" in0 [7:0] $end
$var wire 8 <" in1 [7:0] $end
$var wire 1 l sel $end
$var reg 8 =" out [7:0] $end
$upscope $end
$scope module reg_mux2 $end
$var wire 8 >" in0 [7:0] $end
$var wire 8 ?" in1 [7:0] $end
$var wire 1 m sel $end
$var reg 8 @" out [7:0] $end
$upscope $end
$scope module reg_mux3 $end
$var wire 8 A" in0 [7:0] $end
$var wire 8 B" in1 [7:0] $end
$var wire 1 n sel $end
$var reg 8 C" out [7:0] $end
$upscope $end
$upscope $end
$scope module mydmem $end
$var wire 6 D" address [5:0] $end
$var wire 1 8 clock $end
$var wire 1 & read $end
$var wire 1 : reset $end
$var wire 1 $ write $end
$var wire 32 E" writedata [31:0] $end
$var reg 1 ' busywait $end
$var reg 1 F" readaccess $end
$var reg 32 G" readdata [31:0] $end
$var reg 1 H" writeaccess $end
$var integer 32 I" i [31:0] $end
$upscope $end
$scope module myinstcache $end
$var wire 10 J" PC_address [9:0] $end
$var wire 1 8 clock $end
$var wire 1 K" hit $end
$var wire 3 L" in2 [2:0] $end
$var wire 1 ) read $end
$var wire 1 : reset $end
$var wire 1 M" v $end
$var wire 1 N" tagcom $end
$var wire 3 O" in1 [2:0] $end
$var wire 128 P" i_memreaddata [127:0] $end
$var wire 1 - i_membusywait $end
$var reg 128 Q" datablock [127:0] $end
$var reg 1 / i_busywait $end
$var reg 6 R" i_memaddress [5:0] $end
$var reg 1 , i_memread $end
$var reg 32 S" i_readdata [31:0] $end
$var reg 32 T" i_readdata_1 [31:0] $end
$var reg 3 U" index [2:0] $end
$var reg 3 V" next_state [2:0] $end
$var reg 2 W" offset [1:0] $end
$var reg 3 X" state [2:0] $end
$var reg 3 Y" tag [2:0] $end
$var integer 32 Z" i [31:0] $end
$upscope $end
$scope module myinstmem $end
$var wire 6 [" address [5:0] $end
$var wire 1 8 clock $end
$var wire 1 , read $end
$var reg 1 - busywait $end
$var reg 1 \" readaccess $end
$var reg 128 ]" readdata [127:0] $end
$upscope $end
$upscope $end
$enddefinitions $end
#0
$dumpvars
bx ]"
0\"
bx ["
bx Z"
bx Y"
bx X"
bx W"
bx V"
bx U"
bx T"
bx S"
bx R"
bx Q"
bx P"
bx O"
xN"
xM"
bx L"
xK"
bx00 J"
bx I"
xH"
bx G"
xF"
bx E"
bx D"
bx C"
bx B"
bx A"
bx @"
bx ?"
bx >"
bx ="
bx <"
bx ;"
bx :"
bx 9"
bx 8"
bx 7"
bx 6"
bx 5"
bx 4"
b0 3"
bx 2"
b0 1"
bx 0"
bx /"
bx ."
bx -"
bx ,"
bx +"
bx *"
x)"
bx ("
bx '"
x&"
x%"
x$"
x#"
x""
x!"
x~
bx }
bx |
bx {
bx z
b0 y
b0 x
xw
xv
xu
xt
xs
bx r
bx q
bx p
bx o
xn
xm
xl
bx k
bx j
xi
bx h
bx g
bx f
bx e
xd
bx c
xb
xa
bx `
bx _
bx ^
bx ]
b0 \
bx [
bx Z
xY
bx X
b0 W
bx V
bx U
bx T
bx S
bx R
b0 Q
bx P
bx O
bx N
bx M
bx L
bx K
bx J
bx I
bx H
bx G
bx F
bx E
bx D
bx C
bx B
bx A
x@
bx ?
x>
bx =
x<
x;
0:
bx 9
18
bx 7
x6
bx 5
bx00 4
x3
bx 2
x1
bx 0
x/
bx .
0-
x,
bx +
bx *
x)
bx (
x'
x&
bx %
x$
bx #
bx "
x!
$end
#20
b0 T
b0 r
#30
0$
0&
0,
b0 V"
0!
b0 H
b0 K
b0 X"
0/
b1000 Z"
06
b1000 M
0H"
0F"
0'
b100000000 I"
1:
#40
b111 O"
b111 Y"
b111 U"
b11 W"
0)
b0 ]
b0 p
b0 q
b1111111100 4
b1111111100 J"
b11111111111111111111111111111100 5
b11111111111111111111111111111100 f
b11111111111111111111111111111100 o
b0 z
0v
0u
0s
0t
0b
0a
0d
08
#50
0K"
b0 T"
b0 Q"
b0 L"
0M"
b0 P
b1000 :"
#60
0N"
#80
18
0:
#90
b1 V"
0/
b0 O"
b0 Y"
b0 U"
b0 W"
b100 ]
b100 p
b100 q
1)
b0 4
b0 J"
b0 5
b0 f
b0 o
#100
1N"
b100 P
#120
08
#160
1!
1\"
1-
1/
b0 .
b0 R"
b0 ["
1,
b1 V"
b1 X"
18
#200
08
#240
18
#280
08
#320
18
#360
08
#400
18
#440
08
#480
18
#520
08
#560
18
#600
08
#640
18
bx00100011 +
bx00100011 P"
bx00100011 ]"
#680
08
#720
18
#760
08
#800
18
#840
08
#880
18
#920
08
#960
18
#1000
08
#1040
18
bx0000000000100011 +
bx0000000000100011 P"
bx0000000000100011 ]"
#1080
08
#1120
18
#1160
08
#1200
18
#1240
08
#1280
18
#1320
08
#1360
18
#1400
08
#1440
18
bx000000000000000000100011 +
bx000000000000000000100011 P"
bx000000000000000000100011 ]"
#1480
08
#1520
18
#1560
08
#1600
18
#1640
08
#1680
18
#1720
08
#1760
18
#1800
08
#1840
18
bx00000000000000000000000000100011 +
bx00000000000000000000000000100011 P"
bx00000000000000000000000000100011 ]"
#1880
08
#1920
18
#1960
08
#2000
18
#2040
08
#2080
18
#2120
08
#2160
18
#2200
08
#2240
18
bx1111011100000000000000000000000000100011 +
bx1111011100000000000000000000000000100011 P"
bx1111011100000000000000000000000000100011 ]"
#2280
08
#2320
18
#2360
08
#2400
18
#2440
08
#2480
18
#2520
08
#2560
18
#2600
08
#2640
18
bx000000001111011100000000000000000000000000100011 +
bx000000001111011100000000000000000000000000100011 P"
bx000000001111011100000000000000000000000000100011 ]"
#2680
08
#2720
18
#2760
08
#2800
18
#2840
08
#2880
18
#2920
08
#2960
18
#3000
08
#3040
18
bx00000001000000001111011100000000000000000000000000100011 +
bx00000001000000001111011100000000000000000000000000100011 P"
bx00000001000000001111011100000000000000000000000000100011 ]"
#3080
08
#3120
18
#3160
08
#3200
18
#3240
08
#3280
18
#3320
08
#3360
18
#3400
08
#3440
18
bx0000000000000001000000001111011100000000000000000000000000100011 +
bx0000000000000001000000001111011100000000000000000000000000100011 P"
bx0000000000000001000000001111011100000000000000000000000000100011 ]"
#3480
08
#3520
18
#3560
08
#3600
18
#3640
08
#3680
18
#3720
08
#3760
18
#3800
08
#3840
18
bx000000000000000000000001000000001111011100000000000000000000000000100011 +
bx000000000000000000000001000000001111011100000000000000000000000000100011 P"
bx000000000000000000000001000000001111011100000000000000000000000000100011 ]"
#3880
08
#3920
18
#3960
08
#4000
18
#4040
08
#4080
18
#4120
08
#4160
18
#4200
08
#4240
18
bx00000001000000000000000000000001000000001111011100000000000000000000000000100011 +
bx00000001000000000000000000000001000000001111011100000000000000000000000000100011 P"
bx00000001000000000000000000000001000000001111011100000000000000000000000000100011 ]"
#4280
08
#4320
18
#4360
08
#4400
18
#4440
08
#4480
18
#4520
08
#4560
18
#4600
08
#4640
18
bx0000001000000001000000000000000000000001000000001111011100000000000000000000000000100011 +
bx0000001000000001000000000000000000000001000000001111011100000000000000000000000000100011 P"
bx0000001000000001000000000000000000000001000000001111011100000000000000000000000000100011 ]"
#4680
08
#4720
18
#4760
08
#4800
18
#4840
08
#4880
18
#4920
08
#4960
18
#5000
08
#5040
18
bx000000100000001000000001000000000000000000000001000000001111011100000000000000000000000000100011 +
bx000000100000001000000001000000000000000000000001000000001111011100000000000000000000000000100011 P"
bx000000100000001000000001000000000000000000000001000000001111011100000000000000000000000000100011 ]"
#5080
08
#5120
18
#5160
08
#5200
18
#5240
08
#5280
18
#5320
08
#5360
18
#5400
08
#5440
18
bx00000001000000100000001000000001000000000000000000000001000000001111011100000000000000000000000000100011 +
bx00000001000000100000001000000001000000000000000000000001000000001111011100000000000000000000000000100011 P"
bx00000001000000100000001000000001000000000000000000000001000000001111011100000000000000000000000000100011 ]"
#5480
08
#5520
18
#5560
08
#5600
18
#5640
08
#5680
18
#5720
08
#5760
18
#5800
08
#5840
18
bx0000000100000001000000100000001000000001000000000000000000000001000000001111011100000000000000000000000000100011 +
bx0000000100000001000000100000001000000001000000000000000000000001000000001111011100000000000000000000000000100011 P"
bx0000000100000001000000100000001000000001000000000000000000000001000000001111011100000000000000000000000000100011 ]"
#5880
08
#5920
18
#5960
08
#6000
18
#6040
08
#6080
18
#6120
08
#6160
18
#6200
08
#6240
18
bx000001010000000100000001000000100000001000000001000000000000000000000001000000001111011100000000000000000000000000100011 +
bx000001010000000100000001000000100000001000000001000000000000000000000001000000001111011100000000000000000000000000100011 P"
bx000001010000000100000001000000100000001000000001000000000000000000000001000000001111011100000000000000000000000000100011 ]"
#6280
08
#6320
18
#6360
08
#6400
18
#6440
08
#6480
18
#6520
08
#6560
18
#6600
08
#6640
0,
b11 X"
b0 V"
18
0\"
0-
b11000001010000000100000001000000100000001000000001000000000000000000000001000000001111011100000000000000000000000000100011 +
b11000001010000000100000001000000100000001000000001000000000000000000000001000000001111011100000000000000000000000000100011 P"
b11000001010000000100000001000000100000001000000001000000000000000000000001000000001111011100000000000000000000000000100011 ]"
#6660
b0 2"
01
03
b0 k
b0 0"
b0 g
b0 6"
b0 c
b0 >"
b0 h
b0 8"
b0 j
b0 4"
b0 e
b0 9
b0 O
b0 "
b0 *
b0 S"
1K"
b11000001010000000100000001000000100000001000000001000000000000000000000001000000001111011100000000000000000000000000100011 Q"
1M"
#6670
b100011 c
b100011 >"
b11 h
b11 8"
b100011 9
b100011 O
b100011 V
b100011 -"
b100011 @"
b100011 "
b100011 *
b100011 S"
0n
0m
0l
b0 `
b0 ("
1i
b100011 T"
#6680
1w
1#"
0Y
0)"
1""
1&"
1!"
1%"
1~
1$"
b100011 ^
b100011 9"
b100011 C"
b1 B
b1 L
b0 E
b11 I
b100011 }
b100011 |
b100011 7
b100011 C
b100011 N
b100011 _
b100011 '"
b100011 /"
b100011 A"
b0 U
b0 ="
b0 ?"
bx1xxx11 +"
b0x000xx *"
b100011 {
b0 0
b0 ?
b0 S
b0 [
b0 ."
b0 5"
b0 Z
b0 7"
b0 ;"
08
#6690
0<
b0 D
0;
b0 =
0>
b100011 +"
b0 *"
b0 X
b0 <"
#6699
0@
#6700
b100011 ,"
#6720
bx .
bx R"
bx ["
0!
b0 X"
0/
18
#6730
b1 W"
b1000 ]
b1000 p
b1000 q
b100 4
b100 J"
b100 5
b100 f
b100 o
#6740
b100 W
b100 1"
b100 3"
b100 2"
b11110111 V
b11110111 -"
b11110111 @"
b1 k
b1 0"
b11110111 c
b11110111 >"
b111 h
b111 8"
b1 j
b1 4"
b10000000011110111 9
b10000000011110111 O
b10000000011110111 "
b10000000011110111 *
b10000000011110111 S"
b10000000011110111 T"
b1000 P
#6750
b11110111 ^
b11110111 9"
b11110111 C"
b111 B
b111 L
b101 E
b11110111 }
b11110111 |
b11110111 7
b11110111 C
b11110111 N
b11110111 _
b11110111 '"
b11110111 /"
b11110111 A"
b11110111 +"
b11110111 {
b100011 0
b100011 ?
b100011 S
b100011 [
b100011 ."
b100011 5"
#6760
b100011 *"
b100 T
b100 r
08
#6770
b11010 ,"
#6800
18
#6810
b10 W"
b1100 ]
b1100 p
b1100 q
b1000 4
b1000 J"
b1000 5
b1000 f
b1000 o
#6820
b1000 W
b1000 1"
b1000 3"
b1000 2"
b0 V
b0 -"
b0 @"
b10 k
b10 0"
b1 g
b1 6"
b0 c
b0 >"
b0 h
b0 8"
b10 j
b10 4"
b10 e
b10000000100000000100000000 9
b10000000100000000100000000 O
b10000000100000000100000000 "
b10000000100000000100000000 *
b10000000100000000100000000 S"
b10000000100000000100000000 T"
b1100 P
#6830
b11010 ^
b11010 9"
b11010 C"
b0 B
b0 L
b110 E
b10 I
b11010 }
b11010 |
b11010 7
b11010 C
b11010 N
b11010 _
b11010 '"
b11010 /"
b11010 A"
b100011 +"
b0 *"
b0 {
1m
b1 `
b1 ("
#6839
1@
#6840
b100011 ^
b100011 9"
b100011 C"
b1 B
b1 L
b0 E
b11 I
b100011 V
b100011 -"
b100011 @"
b100011 }
b100011 |
b100011 7
b100011 C
b100011 N
b100011 _
b100011 '"
b100011 /"
b100011 A"
b100011 U
b100011 ="
b100011 ?"
b1000 T
b1000 r
b100011 ,"
b11110111 0
b11110111 ?
b11110111 S
b11110111 [
b11110111 ."
b11110111 5"
b100011 Z
b100011 7"
b100011 ;"
08
#6849
0@
#6850
b100011 *"
b100011 {
b11110111 +"
b11011101 X
b11011101 <"
#6860
b11010 ^
b11010 9"
b11010 C"
b0 B
b0 L
b110 E
b10 I
b11010 }
b11010 |
b11010 7
b11010 C
b11010 N
b11010 _
b11010 '"
b11010 /"
b11010 A"
b11010 ,"
#6869
1@
#6880
18
#6890
b11 W"
b10000 ]
b10000 p
b10000 q
b1100 4
b1100 J"
b1100 5
b1100 f
b1100 o
#6900
b10100 W
b10100 1"
b10100 3"
b10100 2"
b101 k
b101 0"
b1 c
b1 >"
b1 h
b1 8"
b101 j
b101 4"
b11 e
b11000001010000000100000001 9
b11000001010000000100000001 O
b11000001010000000100000001 "
b11000001010000000100000001 *
b11000001010000000100000001 S"
b11000001010000000100000001 T"
b10000 P
#6910
b11011101 V
b11011101 -"
b11011101 @"
b11011101 U
b11011101 ="
b11011101 ?"
1l
#6920
b11111111 +"
b11010101 *"
b11011101 {
b10100 T
b10100 r
b11110111 Z
b11110111 7"
b11110111 ;"
08
#6930
0~
b1001 V
b1001 -"
b1001 @"
b11010100 ^
b11010100 9"
b11010100 C"
b110 B
b110 L
b101 E
b0 I
b1001 U
b1001 ="
b1001 ?"
b11010100 }
b11010100 |
b11010100 7
b11010100 C
b11010100 N
b11010100 _
b11010100 '"
b11010100 /"
b11010100 A"
b1001 X
b1001 <"
b11010100 ,"
#6939
0@
#6940
b1 *"
b1001 {
#6950
0w
1Y
1)"
0&"
0%"
0$"
0#"
0""
0!"
b0 ^
b0 9"
b0 C"
b0 B
b0 L
b0 E
b0 }
b0 |
b0 7
b0 C
b0 N
b0 _
b0 '"
b0 /"
b0 A"
b0 ,"
#6959
1@
#6960
18
#6970
b1 U"
b0 W"
b10100 ]
b10100 p
b10100 q
b10000 4
b10000 J"
b10000 5
b10000 f
b10000 o
#6980
b1 V"
0K"
b0 T"
b0 Q"
0M"
b10100 P
#7000
08
#7040
1!
1\"
1-
1/
b1 .
b1 R"
b1 ["
1,
b1 V"
b1 X"
18
#7080
08
#7120
18
#7160
08
#7200
18
#7240
08
#7280
18
#7320
08
#7360
18
#7400
08
#7440
18
#7480
08
#7520
18
b11000001010000000100000001000000100000001000000001000000000000000000000001000000001111011100000000000000000000000000000011 +
b11000001010000000100000001000000100000001000000001000000000000000000000001000000001111011100000000000000000000000000000011 P"
b11000001010000000100000001000000100000001000000001000000000000000000000001000000001111011100000000000000000000000000000011 ]"
#7560
08
#7600
18
#7640
08
#7680
18
#7720
08
#7760
18
#7800
08
#7840
18
#7880
08
#7920
18
#7960
08
#8000
18
#8040
08
#8080
18
#8120
08
#8160
18
#8200
08
#8240
18
#8280
08
#8320
18
b11000001010000000100000001000000100000001000000001000000000000000000000001000000001111011100000000000001000000000000000011 +
b11000001010000000100000001000000100000001000000001000000000000000000000001000000001111011100000000000001000000000000000011 P"
b11000001010000000100000001000000100000001000000001000000000000000000000001000000001111011100000000000001000000000000000011 ]"
#8360
08
#8400
18
#8440
08
#8480
18
#8520
08
#8560
18
#8600
08
#8640
18
#8680
08
#8720
18
b11000001010000000100000001000000100000001000000001000000000000000000000001000000001111011100000001000001000000000000000011 +
b11000001010000000100000001000000100000001000000001000000000000000000000001000000001111011100000001000001000000000000000011 P"
b11000001010000000100000001000000100000001000000001000000000000000000000001000000001111011100000001000001000000000000000011 ]"
#8760
08
#8800
18
#8840
08
#8880
18
#8920
08
#8960
18
#9000
08
#9040
18
#9080
08
#9120
18
b11000001010000000100000001000000100000001000000001000000000000000000000001000000000000010000000001000001000000000000000011 +
b11000001010000000100000001000000100000001000000001000000000000000000000001000000000000010000000001000001000000000000000011 P"
b11000001010000000100000001000000100000001000000001000000000000000000000001000000000000010000000001000001000000000000000011 ]"
#9160
08
#9200
18
#9240
08
#9280
18
#9320
08
#9360
18
#9400
08
#9440
18
#9480
08
#9520
18
b11000001010000000100000001000000100000001000000001000000000000000000000001000000010000010000000001000001000000000000000011 +
b11000001010000000100000001000000100000001000000001000000000000000000000001000000010000010000000001000001000000000000000011 P"
b11000001010000000100000001000000100000001000000001000000000000000000000001000000010000010000000001000001000000000000000011 ]"
#9560
08
#9600
18
#9640
08
#9680
18
#9720
08
#9760
18
#9800
08
#9840
18
#9880
08
#9920
18
b11000001010000000100000001000000100000001000000001000000000000000000000101000000010000010000000001000001000000000000000011 +
b11000001010000000100000001000000100000001000000001000000000000000000000101000000010000010000000001000001000000000000000011 P"
b11000001010000000100000001000000100000001000000001000000000000000000000101000000010000010000000001000001000000000000000011 ]"
#9960
08
#10000
18
#10040
08
#10080
18
#10120
08
#10160
18
#10200
08
#10240
18
#10280
08
#10320
18
b11000001010000000100000001000000100000001000000001000000000000010000000101000000010000010000000001000001000000000000000011 +
b11000001010000000100000001000000100000001000000001000000000000010000000101000000010000010000000001000001000000000000000011 P"
b11000001010000000100000001000000100000001000000001000000000000010000000101000000010000010000000001000001000000000000000011 ]"
#10360
08
#10400
18
#10440
08
#10480
18
#10520
08
#10560
18
#10600
08
#10640
18
#10680
08
#10720
18
b11000001010000000100000001000000100000001000000001000000100000010000000101000000010000010000000001000001000000000000000011 +
b11000001010000000100000001000000100000001000000001000000100000010000000101000000010000010000000001000001000000000000000011 P"
b11000001010000000100000001000000100000001000000001000000100000010000000101000000010000010000000001000001000000000000000011 ]"
#10760
08
#10800
18
#10840
08
#10880
18
#10920
08
#10960
18
#11000
08
#11040
18
#11080
08
#11120
18
b11000001010000000100000001000000100000001000000011000000100000010000000101000000010000010000000001000001000000000000000011 +
b11000001010000000100000001000000100000001000000011000000100000010000000101000000010000010000000001000001000000000000000011 P"
b11000001010000000100000001000000100000001000000011000000100000010000000101000000010000010000000001000001000000000000000011 ]"
#11160
08
#11200
18
#11240
08
#11280
18
#11320
08
#11360
18
#11400
08
#11440
18
#11480
08
#11520
18
b11000001010000000100000001000000100000011100000011000000100000010000000101000000010000010000000001000001000000000000000011 +
b11000001010000000100000001000000100000011100000011000000100000010000000101000000010000010000000001000001000000000000000011 P"
b11000001010000000100000001000000100000011100000011000000100000010000000101000000010000010000000001000001000000000000000011 ]"
#11560
08
#11600
18
#11640
08
#11680
18
#11720
08
#11760
18
#11800
08
#11840
18
#11880
08
#11920
18
b11000001010000000100000001000001010000011100000011000000100000010000000101000000010000010000000001000001000000000000000011 +
b11000001010000000100000001000001010000011100000011000000100000010000000101000000010000010000000001000001000000000000000011 P"
b11000001010000000100000001000001010000011100000011000000100000010000000101000000010000010000000001000001000000000000000011 ]"
#11960
08
#12000
18
#12040
08
#12080
18
#12120
08
#12160
18
#12200
08
#12240
18
#12280
08
#12320
18
b11000001010000000100000011000001010000011100000011000000100000010000000101000000010000010000000001000001000000000000000011 +
b11000001010000000100000011000001010000011100000011000000100000010000000101000000010000010000000001000001000000000000000011 P"
b11000001010000000100000011000001010000011100000011000000100000010000000101000000010000010000000001000001000000000000000011 ]"
#12360
08
#12400
18
#12440
08
#12480
18
#12520
08
#12560
18
#12600
08
#12640
18
#12680
08
#12720
18
b11000001010000001000000011000001010000011100000011000000100000010000000101000000010000010000000001000001000000000000000011 +
b11000001010000001000000011000001010000011100000011000000100000010000000101000000010000010000000001000001000000000000000011 P"
b11000001010000001000000011000001010000011100000011000000100000010000000101000000010000010000000001000001000000000000000011 ]"
#12760
08
#12800
18
#12840
08
#12880
18
#12920
08
#12960
18
#13000
08
#13040
18
#13080
08
#13120
18
b11000000000000001000000011000001010000011100000011000000100000010000000101000000010000010000000001000001000000000000000011 +
b11000000000000001000000011000001010000011100000011000000100000010000000101000000010000010000000001000001000000000000000011 P"
b11000000000000001000000011000001010000011100000011000000100000010000000101000000010000010000000001000001000000000000000011 ]"
#13160
08
#13200
18
#13240
08
#13280
18
#13320
08
#13360
18
#13400
08
#13440
18
#13480
08
#13520
0,
b11 X"
b0 V"
18
0\"
0-
b1010000000000000001000000011000001010000011100000011000000100000010000000101000000010000010000000001000001000000000000000011 +
b1010000000000000001000000011000001010000011100000011000000100000010000000101000000010000010000000001000001000000000000000011 P"
b1010000000000000001000000011000001010000011100000011000000100000010000000101000000010000010000000001000001000000000000000011 ]"
#13540
b0 W
b0 1"
b0 3"
b0 2"
b0 k
b0 0"
b0 g
b0 6"
b0 c
b0 >"
b0 h
b0 8"
b0 j
b0 4"
b0 e
b0 9
b0 O
b0 "
b0 *
b0 S"
1K"
b1010000000000000001000000011000001010000011100000011000000100000010000000101000000010000010000000001000001000000000000000011 Q"
1M"
#13550
1w
0Y
0)"
1&"
1%"
1$"
1!"
1#"
b10000 W
b10000 1"
b10000 3"
b10000 2"
1~
1""
b100 k
b100 0"
b11 c
b11 >"
b11 h
b11 8"
b100 j
b100 4"
b1 e
b1001 ^
b1001 9"
b1001 C"
b10 E
b1 I
b1000001000000000000000011 9
b1000001000000000000000011 O
b11 V
b11 -"
b11 @"
b11110111 U
b11110111 ="
b11110111 ?"
b1001 }
b1001 |
b1001 7
b1001 C
b1001 N
b1001 _
b1001 '"
b1001 /"
b1001 A"
b1000001000000000000000011 "
b1000001000000000000000011 *
b1000001000000000000000011 S"
0m
0l
b0 `
b0 ("
b1000001000000000000000011 T"
#13560
b11 ^
b11 9"
b11 C"
b0 E
b11 I
b11110111 V
b11110111 -"
b11110111 @"
b11 }
b11 |
b11 7
b11 C
b11 N
b11 _
b11 '"
b11 /"
b11 A"
1m
b11110111 +"
b11 *"
b11 {
b100011 0
b100011 ?
b100011 S
b100011 [
b100011 ."
b100011 5"
08
#13570
b11110111 ^
b11110111 9"
b11110111 C"
b111 B
b111 L
b101 E
b0 V
b0 -"
b0 @"
b11110111 }
b11110111 |
b11110111 7
b11110111 C
b11110111 N
b11110111 _
b11110111 '"
b11110111 /"
b11110111 A"
b0 U
b0 ="
b0 ?"
b100011 *"
b11110111 {
b10000 T
b10000 r
b0 Z
b0 7"
b0 ;"
#13579
0@
#13580
0w
1Y
1)"
0&"
0%"
0$"
0#"
0""
0!"
0~
b0 ^
b0 9"
b0 C"
b0 B
b0 L
b0 E
b0 I
b0 }
b0 |
b0 7
b0 C
b0 N
b0 _
b0 '"
b0 /"
b0 A"
b100011 +"
b0 *"
b0 {
b0 X
b0 <"
#13589
1@
#13590
b100011 ,"
#13600
bx .
bx R"
bx ["
0!
b0 X"
0/
18
#13610
b1 W"
b11000 ]
b11000 p
b11000 q
b10100 4
b10100 J"
b10100 5
b10100 f
b10100 o
#13620
b10100 W
b10100 1"
b10100 3"
b10100 2"
b101 k
b101 0"
b1 g
b1 6"
b100 c
b100 >"
b100 h
b100 8"
b101 j
b101 4"
b100 e
b100000001010000000100000100 9
b100000001010000000100000100 O
b100000001010000000100000100 "
b100000001010000000100000100 *
b100000001010000000100000100 S"
b100000001010000000100000100 T"
b11000 P
#13630
b10 `
b10 ("
#13640
b10100 T
b10100 r
b11110111 0
b11110111 ?
b11110111 S
b11110111 [
b11110111 ."
b11110111 5"
08
#13650
b11110111 +"
#13660
b11110111 ,"
#13680
18
#13690
b10 W"
b11100 ]
b11100 p
b11100 q
b11000 4
b11000 J"
b11000 5
b11000 f
b11000 o
#13700
b11100 W
b11100 1"
b11100 3"
b11100 2"
b111 k
b111 0"
b11 g
b11 6"
b10 c
b10 >"
b10 h
b10 8"
b111 j
b111 4"
b101 e
b101000001110000001100000010 9
b101000001110000001100000010 O
b101000001110000001100000010 "
b101000001110000001100000010 *
b101000001110000001100000010 S"
b101000001110000001100000010 T"
b11100 P
#13710
1w
1""
0Y
0)"
1~
1!"
1#"
1$"
1%"
1&"
b11110111 ^
b11110111 9"
b11110111 C"
b111 B
b111 L
b101 E
b11 I
b11110111 }
b11110111 |
b11110111 7
b11110111 C
b11110111 N
b11110111 _
b11110111 '"
b11110111 /"
b11110111 A"
b11 `
b11 ("
#13719
0@
